<?xml version="1.0" encoding="utf-8"?>
<!-- Generator: Adobe Illustrator 21.0.0, SVG Export Plug-In . SVG Version: 6.00 Build 0)  -->
<svg version="1.1" id="Layer_1" xmlns="http://www.w3.org/2000/svg" xmlns:xlink="http://www.w3.org/1999/xlink" x="0px" y="0px"
	 viewBox="0 0 115.7 117" style="enable-background:new 0 0 115.7 117;" xml:space="preserve">
<style type="text/css">
	.st0{clip-path:url(#SVGID_2_);}
	.st1{clip-path:url(#SVGID_4_);fill:#E01B50;}
	.st2{clip-path:url(#SVGID_6_);}
	.st3{clip-path:url(#SVGID_8_);fill:#315BA9;}
	.st4{clip-path:url(#SVGID_10_);}
	.st5{clip-path:url(#SVGID_12_);fill:#E01B50;}
	.st6{clip-path:url(#SVGID_14_);}
	.st7{clip-path:url(#SVGID_16_);fill:#315BA9;}
	.st8{clip-path:url(#SVGID_18_);}
	.st9{clip-path:url(#SVGID_20_);fill:#315BA9;}
	.st10{clip-path:url(#SVGID_22_);}
	.st11{clip-path:url(#SVGID_24_);fill:#E01B50;}
	.st12{clip-path:url(#SVGID_26_);}
	.st13{clip-path:url(#SVGID_28_);fill:#315BA9;}
	.st14{clip-path:url(#SVGID_30_);}
	.st15{clip-path:url(#SVGID_32_);fill:#E01B50;}
	.st16{clip-path:url(#SVGID_34_);}
	.st17{clip-path:url(#SVGID_36_);fill:#E01B50;}
	.st18{clip-path:url(#SVGID_38_);}
	.st19{clip-path:url(#SVGID_40_);fill:#315BA9;}
	.st20{clip-path:url(#SVGID_42_);}
	.st21{clip-path:url(#SVGID_44_);fill:#315BA9;}
	.st22{clip-path:url(#SVGID_46_);}
	.st23{clip-path:url(#SVGID_48_);fill:#315BA9;}
	.st24{clip-path:url(#SVGID_50_);}
	.st25{clip-path:url(#SVGID_52_);fill:#315BA9;}
	.st26{clip-path:url(#SVGID_54_);}
	.st27{clip-path:url(#SVGID_56_);fill:#315BA9;}
	.st28{clip-path:url(#SVGID_58_);}
	.st29{clip-path:url(#SVGID_60_);fill:#315BA9;}
</style>
<g>
	<defs>
		<path id="SVGID_1_" d="M97.7,94.5H76.2v-0.9c0-0.1,0-0.2,0-0.3c0-0.1,0-0.2,0-0.3c0-0.2,0-0.3,0-0.5v-0.1v-0.2v-0.3v0v-0.1v-0.1
			v-0.1v-0.1v-0.1v-0.1v-0.1V91v-0.1v-0.2v-0.1v-0.1v-0.1l-0.1-0.2V90v-0.1v-0.1v-0.1v-0.1L76,89.2c-1.3-3.4-3.9-6.2-7.3-7.6
			c0.6-0.9,1.3-1.7,2.2-2.3c1.6-0.9,3.3-1.3,5.1-1.3h11.1c5.8,0,10.5,4.7,10.5,10.4V94.5z M73.3,93.8v6.1H41.2v-6.2
			c0-0.1,0-0.2,0-0.3c0-0.2,0-0.3,0-0.5v-0.3c0-0.1,0-0.2,0-0.3V92v-0.1v-0.1v-0.2l0.1-0.2l0.1-0.4l0.1-0.2c1.4-4.3,5.5-7.2,10-7.2
			l0.3-0.2h11.1c5.3,0,9.7,3.9,10.4,9.1c0,0.2,0,0.4,0.1,0.6C73.3,93.3,73.3,93.6,73.3,93.8z M38.4,92.5v0.3c0,0.1,0,0.3,0,0.4v0.6
			v0.7H16.9v-6.1c0-5.8,4.7-10.4,10.5-10.4h11.1c1.8,0,3.6,0.5,5.1,1.3c1.1,0.6,2,1.4,2.8,2.3C42,83.5,38.9,87.7,38.4,92.5z
			 M87.2,75.1H76c-2.3,0-4.6,0.6-6.6,1.7c-1.7,1-3.2,2.3-4.3,3.8c-0.8-0.1-1.5-0.2-2.3-0.2H51.7c-0.8,0-1.5,0.1-2.3,0.2
			c-1.1-1.6-2.6-2.9-4.3-3.8c-2-1.1-4.3-1.7-6.6-1.7H27.4c-7.4,0-13.4,6-13.4,13.3v7.5c0,0.8,0.6,1.4,1.4,1.4h22.8v3.9
			c0,0.8,0.6,1.4,1.4,1.4h35.1c0.8,0,1.4-0.6,1.4-1.4v-3.9h22.8c0.8,0,1.4-0.6,1.4-1.4v-7.5C100.5,81.1,94.5,75.2,87.2,75.1z"/>
	</defs>
	<clipPath id="SVGID_2_">
		<use xlink:href="#SVGID_1_"  style="overflow:visible;"/>
	</clipPath>
	<g class="st0">
		<defs>
			<rect id="SVGID_3_" x="-686.7" y="-2167.5" width="1484" height="4946.7"/>
		</defs>
		<clipPath id="SVGID_4_">
			<use xlink:href="#SVGID_3_"  style="overflow:visible;"/>
		</clipPath>
		<rect x="8.9" y="70" class="st1" width="96.8" height="37.9"/>
	</g>
</g>
<g>
	<defs>
		<ellipse id="SVGID_5_" cx="57.4" cy="28.2" rx="1.6" ry="1.6"/>
	</defs>
	<clipPath id="SVGID_6_">
		<use xlink:href="#SVGID_5_"  style="overflow:visible;"/>
	</clipPath>
	<g class="st2">
		<defs>
			<rect id="SVGID_7_" x="-686.7" y="-2167.5" width="1484" height="4946.7"/>
		</defs>
		<clipPath id="SVGID_8_">
			<use xlink:href="#SVGID_7_"  style="overflow:visible;"/>
		</clipPath>
		<rect x="50.6" y="21.4" class="st3" width="13.6" height="13.5"/>
	</g>
</g>
<g>
	<defs>
		<path id="SVGID_9_" d="M38.1,67.7c-2.8,2.8-7.4,2.8-10.3,0c-2.8-2.8-2.8-7.4,0-10.2c2.8-2.8,7.4-2.8,10.3,0
			c1.4,1.3,2.1,3.2,2.1,5.1C40.2,64.6,39.5,66.4,38.1,67.7z M40.2,55.6c-1.9-1.9-4.5-3-7.2-3c-5.6,0-10.1,4.5-10.1,10
			c0,5.6,4.5,10.1,10.1,10.1c5.6,0,10.1-4.5,10.1-10C43.1,60,42,57.4,40.2,55.6z"/>
	</defs>
	<clipPath id="SVGID_10_">
		<use xlink:href="#SVGID_9_"  style="overflow:visible;"/>
	</clipPath>
	<g class="st4">
		<defs>
			<rect id="SVGID_11_" x="-686.7" y="-2167.5" width="1484" height="4946.7"/>
		</defs>
		<clipPath id="SVGID_12_">
			<use xlink:href="#SVGID_11_"  style="overflow:visible;"/>
		</clipPath>
		<rect x="17.7" y="47.5" class="st5" width="30.6" height="30.4"/>
	</g>
</g>
<g>
	<defs>
		<ellipse id="SVGID_13_" cx="67.9" cy="28.2" rx="1.6" ry="1.6"/>
	</defs>
	<clipPath id="SVGID_14_">
		<use xlink:href="#SVGID_13_"  style="overflow:visible;"/>
	</clipPath>
	<g class="st6">
		<defs>
			<rect id="SVGID_15_" x="-686.7" y="-2167.5" width="1484" height="4946.7"/>
		</defs>
		<clipPath id="SVGID_16_">
			<use xlink:href="#SVGID_15_"  style="overflow:visible;"/>
		</clipPath>
		<rect x="61.1" y="21.4" class="st7" width="13.6" height="13.5"/>
	</g>
</g>
<g>
	<defs>
		<path id="SVGID_17_" d="M72.5,40.1c-4.4,3.3-9.7,5-15.2,4.9c-1.4,0-2.7-0.1-4.1-0.3c-1.3-0.2-2.7-0.5-4-0.9
			c-0.4-0.1-0.8-0.1-1.2,0.1l-5.7,3.3l0.8-5.4c0.1-0.5-0.1-1.1-0.6-1.4c-2-1.5-3.7-3.3-5-5.5c-1.1-2-1.7-4.2-1.7-6.5
			c0-4.5,2.3-8.6,6.1-11.6c4.4-3.3,9.7-5,15.2-4.9c5.5-0.1,10.8,1.6,15.2,4.9c3.8,3,6.1,7.1,6.1,11.6C78.5,33,76.2,37.1,72.5,40.1z
			 M74.2,14.6C69.4,10.9,63.4,8.9,57.3,9c-6.1-0.1-12.1,1.9-16.9,5.6c-4.4,3.5-7.2,8.4-7.2,13.9c0,2.8,0.7,5.5,2.1,7.9
			c1.3,2.3,3,4.3,5.1,5.9l-1.1,7.5c-0.1,0.8,0.4,1.5,1.2,1.6c0.3,0,0.7,0,0.9-0.2l7.8-4.5c1.2,0.4,2.5,0.6,3.8,0.8
			c1.5,0.2,3,0.3,4.5,0.3c6.1,0.1,12.1-1.9,16.9-5.6c4.4-3.5,7.2-8.4,7.2-13.9C81.4,23,78.7,18.1,74.2,14.6z"/>
	</defs>
	<clipPath id="SVGID_18_">
		<use xlink:href="#SVGID_17_"  style="overflow:visible;"/>
	</clipPath>
	<g class="st8">
		<defs>
			<rect id="SVGID_19_" x="-686.7" y="-2167.5" width="1484" height="4946.7"/>
		</defs>
		<clipPath id="SVGID_20_">
			<use xlink:href="#SVGID_19_"  style="overflow:visible;"/>
		</clipPath>
		<rect x="28" y="3.8" class="st9" width="58.6" height="52.7"/>
	</g>
</g>
<g>
	<defs>
		<path id="SVGID_21_" d="M86.7,67.7c-2.8,2.8-7.4,2.8-10.3,0c-1.4-1.3-2.1-3.2-2.1-5.1c0-1.9,0.8-3.7,2.1-5.1
			c2.8-2.8,7.4-2.8,10.3,0C89.6,60.4,89.6,64.9,86.7,67.7z M81.6,52.6c-5.6,0-10.1,4.5-10.1,10c0,2.7,1.1,5.2,3,7.1
			c1.9,1.9,4.5,3,7.2,3c5.6,0,10.1-4.5,10.1-10C91.7,57.1,87.2,52.6,81.6,52.6z"/>
	</defs>
	<clipPath id="SVGID_22_">
		<use xlink:href="#SVGID_21_"  style="overflow:visible;"/>
	</clipPath>
	<g class="st10">
		<defs>
			<rect id="SVGID_23_" x="-686.7" y="-2167.5" width="1484" height="4946.7"/>
		</defs>
		<clipPath id="SVGID_24_">
			<use xlink:href="#SVGID_23_"  style="overflow:visible;"/>
		</clipPath>
		<rect x="66.3" y="47.4" class="st11" width="30.6" height="30.4"/>
	</g>
</g>
<g>
	<defs>
		<ellipse id="SVGID_25_" cx="46.8" cy="28.2" rx="1.6" ry="1.6"/>
	</defs>
	<clipPath id="SVGID_26_">
		<use xlink:href="#SVGID_25_"  style="overflow:visible;"/>
	</clipPath>
	<g class="st12">
		<defs>
			<rect id="SVGID_27_" x="-686.7" y="-2167.5" width="1484" height="4946.7"/>
		</defs>
		<clipPath id="SVGID_28_">
			<use xlink:href="#SVGID_27_"  style="overflow:visible;"/>
		</clipPath>
		<rect x="40.1" y="21.4" class="st13" width="13.6" height="13.5"/>
	</g>
</g>
<g>
	<defs>
		<path id="SVGID_29_" d="M57.3,75.2c-4,0-7.3-3.2-7.3-7.2c0-4,3.2-7.2,7.3-7.2c1.9,0,3.8,0.8,5.1,2.1c1.4,1.3,2.1,3.2,2.1,5.1
			C64.5,72,61.3,75.2,57.3,75.2z M64.4,60.9C62.5,59,60,58,57.3,58c-2.7,0-5.3,1.1-7.2,3c-3.9,3.9-3.9,10.3,0,14.2
			c4,3.9,10.4,3.9,14.3,0C68.4,71.2,68.4,64.8,64.4,60.9z"/>
	</defs>
	<clipPath id="SVGID_30_">
		<use xlink:href="#SVGID_29_"  style="overflow:visible;"/>
	</clipPath>
	<g class="st14">
		<defs>
			<rect id="SVGID_31_" x="-686.7" y="-2167.5" width="1484" height="4946.7"/>
		</defs>
		<clipPath id="SVGID_32_">
			<use xlink:href="#SVGID_31_"  style="overflow:visible;"/>
		</clipPath>
		<rect x="42" y="52.8" class="st15" width="30.5" height="30.4"/>
	</g>
</g>
<g>
	<defs>
		<path id="SVGID_33_" d="M-136.2,60.3l9-13.7l9,13.7H-136.2z M-148.4,96.7l10.2-32.7h19.2L-148.4,96.7z M-152.1,95.6l-9.8-31.5
			h19.6L-152.1,95.6z M-185.1,64h19.2l10.2,32.7L-185.1,64z M-176.9,46.5l9,13.7h-18L-176.9,46.5z M-155.5,45l-8.9,13.7l-8.9-13.7
			H-155.5z M-143.2,60.3h-17.7l8.9-13.6L-143.2,60.3z M-130.8,45l-8.9,13.7l-8.9-13.7H-130.8z M-114.2,59.5l-10.6-16.3
			c-0.8-1.3-2.2-2-3.7-2h-46.9c-1.5,0-2.9,0.8-3.7,2l-10.7,16.3c-1.1,1.7-0.9,3.9,0.4,5.3l34.1,38c0.8,0.9,2.1,1.5,3.3,1.5
			c0,0,0,0,0,0c1.3,0,2.5-0.5,3.3-1.5l34.1-38C-113.3,63.3-113.1,61.1-114.2,59.5z"/>
	</defs>
	<clipPath id="SVGID_34_">
		<use xlink:href="#SVGID_33_"  style="overflow:visible;"/>
	</clipPath>
	<g class="st16">
		<defs>
			<rect id="SVGID_35_" x="-1254.1" y="-2098.8" width="1440" height="4800"/>
		</defs>
		<clipPath id="SVGID_36_">
			<use xlink:href="#SVGID_35_"  style="overflow:visible;"/>
		</clipPath>
		<rect x="-195.6" y="36.2" class="st17" width="87.1" height="73.1"/>
	</g>
</g>
<g>
	<defs>
		<path id="SVGID_37_" d="M-195,59.5h-4c-1.1,0-2,0.9-2,2s0.9,2,2,2h4c1.1,0,2-0.9,2-2S-193.9,59.5-195,59.5z"/>
	</defs>
	<clipPath id="SVGID_38_">
		<use xlink:href="#SVGID_37_"  style="overflow:visible;"/>
	</clipPath>
	<g class="st18">
		<defs>
			<rect id="SVGID_39_" x="-1254.1" y="-2098.8" width="1440" height="4800"/>
		</defs>
		<clipPath id="SVGID_40_">
			<use xlink:href="#SVGID_39_"  style="overflow:visible;"/>
		</clipPath>
		<rect x="-206.1" y="54.5" class="st19" width="18" height="14"/>
	</g>
</g>
<g>
	<defs>
		<path id="SVGID_41_" d="M-105.1,59.5h-4c-1.1,0-2,0.9-2,2s0.9,2,2,2h4c1.1,0,2-0.9,2-2S-104,59.5-105.1,59.5z"/>
	</defs>
	<clipPath id="SVGID_42_">
		<use xlink:href="#SVGID_41_"  style="overflow:visible;"/>
	</clipPath>
	<g class="st20">
		<defs>
			<rect id="SVGID_43_" x="-1254.1" y="-2098.8" width="1440" height="4800"/>
		</defs>
		<clipPath id="SVGID_44_">
			<use xlink:href="#SVGID_43_"  style="overflow:visible;"/>
		</clipPath>
		<rect x="-116.1" y="54.5" class="st21" width="18" height="14"/>
	</g>
</g>
<g>
	<defs>
		<path id="SVGID_45_" d="M-117.3,27.4c-0.8-0.8-2-0.8-2.8,0l-6.5,6.5c-0.8,0.8-0.8,2,0,2.8c0.4,0.4,0.9,0.6,1.4,0.6
			c0.5,0,1-0.2,1.4-0.6l6.5-6.5C-116.5,29.4-116.5,28.1-117.3,27.4z"/>
	</defs>
	<clipPath id="SVGID_46_">
		<use xlink:href="#SVGID_45_"  style="overflow:visible;"/>
	</clipPath>
	<g class="st22">
		<defs>
			<rect id="SVGID_47_" x="-1254.1" y="-2098.8" width="1440" height="4800"/>
		</defs>
		<clipPath id="SVGID_48_">
			<use xlink:href="#SVGID_47_"  style="overflow:visible;"/>
		</clipPath>
		<rect x="-132.2" y="21.8" class="st23" width="20.4" height="20.4"/>
	</g>
</g>
<g>
	<defs>
		<path id="SVGID_49_" d="M-177.6,33.9l-6.5-6.5c-0.8-0.8-2-0.8-2.8,0c-0.8,0.8-0.8,2,0,2.8l6.5,6.5c0.4,0.4,0.9,0.6,1.4,0.6
			s1-0.2,1.4-0.6C-176.8,35.9-176.8,34.6-177.6,33.9z"/>
	</defs>
	<clipPath id="SVGID_50_">
		<use xlink:href="#SVGID_49_"  style="overflow:visible;"/>
	</clipPath>
	<g class="st24">
		<defs>
			<rect id="SVGID_51_" x="-1254.1" y="-2098.8" width="1440" height="4800"/>
		</defs>
		<clipPath id="SVGID_52_">
			<use xlink:href="#SVGID_51_"  style="overflow:visible;"/>
		</clipPath>
		<rect x="-192.4" y="21.8" class="st25" width="20.4" height="20.4"/>
	</g>
</g>
<g>
	<defs>
		<path id="SVGID_53_" d="M-151.7,13.2c-1.1,0-2,0.8-2,1.9v12.2c0,1,0.9,1.9,2,1.9c1.1,0,2-0.8,2-1.9V15.1
			C-149.7,14.1-150.6,13.2-151.7,13.2z"/>
	</defs>
	<clipPath id="SVGID_54_">
		<use xlink:href="#SVGID_53_"  style="overflow:visible;"/>
	</clipPath>
	<g class="st26">
		<defs>
			<rect id="SVGID_55_" x="-1254.1" y="-2098.8" width="1440" height="4800"/>
		</defs>
		<clipPath id="SVGID_56_">
			<use xlink:href="#SVGID_55_"  style="overflow:visible;"/>
		</clipPath>
		<rect x="-158.7" y="8.2" class="st27" width="14" height="26"/>
	</g>
</g>
<g>
	<defs>
		<path id="SVGID_57_" d="M-150.3,33c-0.4-0.4-0.9-0.6-1.4-0.6s-1,0.2-1.4,0.6c-0.4,0.4-0.6,0.9-0.6,1.4c0,0.5,0.2,1,0.6,1.4
			c0.4,0.4,0.9,0.6,1.4,0.6s1-0.2,1.4-0.6c0.4-0.4,0.6-0.9,0.6-1.4S-149.9,33.4-150.3,33z"/>
	</defs>
	<clipPath id="SVGID_58_">
		<use xlink:href="#SVGID_57_"  style="overflow:visible;"/>
	</clipPath>
	<g class="st28">
		<defs>
			<rect id="SVGID_59_" x="-1254.1" y="-2098.8" width="1440" height="4800"/>
		</defs>
		<clipPath id="SVGID_60_">
			<use xlink:href="#SVGID_59_"  style="overflow:visible;"/>
		</clipPath>
		<rect x="-158.7" y="27.4" class="st29" width="14" height="14"/>
	</g>
</g>
</svg>
